…
``` r
predict(m_nnnet, newdata = test_set, type = 'prob') %>%
  as_tibble() %>%
  # mutate(V1 = ifelse(V1 >= .5, 1, 0)) %>%
  rename(yhat_nn = V1) -> df_yhat_nn
```

    ## Warning: `as_tibble.matrix()` requires a matrix with column names or a `.name_repair` argument. Using compatibility `.name_repair`.
    ## This warning is displayed once per session.

``` r
df_yhat_nn
```

    ## # A tibble: 74 x 1
    ##    yhat_nn
    ##      <dbl>
    ##  1   0.900
    ##  2   0.163
    ##  3   0.216
    ##  4   0.315
    ##  5   0.355
    ##  6   0.723
    ##  7   0.163
    ##  8   0.998
    ##  9   0.162
    ## 10   0.908
    ## # ... with 64 more rows

그리고 `m_dt` 모델에 대한 예측값을 다음과 같이 구한다.

``` r
predict(m_dt, newdata = test_set, type ='prob') %>%
  as_tibble() %>%
  dplyr::select('1') %>%
  # mutate(value = as.numeric(value) - 1) %>%
  rename(yhat_dt = '1') -> df_yhat_dt


df_yhat_dt
```

    ## # A tibble: 74 x 1
    ##    yhat_dt
    ##      <dbl>
    ##  1   0.293
    ##  2   0.293
    ##  3   0.293
    ##  4   0.293
    ##  5   0.293
    ##  6   0.293
    ##  7   0.293
    ##  8   0.763
    ##  9   0.293
    ## 10   0.763
    ## # ... with 64 more rows
…
    ## Warning: Calling `as_tibble()` on a vector is discouraged, because the behavior is likely to change in the future. Use `tibble::enframe(name = NULL)` instead.
    ## This warning is displayed once per session.

``` r
df_result
```

    ## # A tibble: 74 x 3
    ##    actual yhat_nn yhat_dt
    ##     <dbl>   <dbl>   <dbl>
    ##  1      1   0.900   0.293
    ##  2      1   0.163   0.293
    ##  3      1   0.216   0.293
    ##  4      1   0.315   0.293
    ##  5      1   0.355   0.293
    ##  6      1   0.723   0.293
    ##  7      1   0.163   0.293
    ##  8      1   0.998   0.763
    ##  9      1   0.162   0.293
    ## 10      1   0.908   0.763
    ## # ... with 64 more rows
…
